# consistency of precision estimates on internal dataset

    Code
      stat_X(tb_pr, file.nm)
    Output
      # A tibble: 21 x 12
         file.nm         species.nm n_t.nm tot_N.pr M_Xt.pr S_Xt.pr RS_Xt.pr SeM_Xt.pr
         <chr>           <chr>       <int>    <dbl>   <dbl>   <dbl>    <dbl>     <dbl>
       1 2018-01-19-GLE~ 12C          3900 41718475  3.07e4 2741.       8.94   43.9   
       2 2018-01-19-GLE~ 12C 13C      3900    15254  1.12e1    9.18    81.9     0.147 
       3 2018-01-19-GLE~ 12C 14N      3900   511093  3.75e2  221.      58.7     3.53  
       4 2018-01-19-GLE~ 12C2         3900   686187  5.04e2  341.      67.7     5.46  
       5 2018-01-19-GLE~ 13C          3900   458139  3.37e2   42.5     12.6     0.681 
       6 2018-01-19-GLE~ 13C 14N      3900     9158  6.73e0    5.64    83.8     0.0903
       7 2018-01-19-GLE~ 40Ca 16O     3900 18082538  1.33e4 1858.      14.0    29.8   
       8 2018-01-19-GLE~ 12C          3900 72956119  5.36e4 4077.       7.61   65.3   
       9 2018-01-19-GLE~ 12C 13C      3900    10786  7.92e0    7.48    94.4     0.120 
      10 2018-01-19-GLE~ 12C 14N      3900   362709  2.66e2  114.      42.9     1.83  
      # ... with 11 more rows, and 4 more variables: hat_S_N.pr <dbl>,
      #   hat_RS_N.pr <dbl>, hat_SeM_N.pr <dbl>, chi2_N.pr <dbl>

---

    Code
      stat_X(tb_pr, file.nm, .label = "latex")
    Output
      # A tibble: 21 x 12
         file.nm  species.nm `$n$` `$N_{tot}$` `$\\bar{X}$` `$s_{X}$` `$\\epsilon_{X}~
         <chr>    <chr>      <int>       <dbl>        <dbl>     <dbl>            <dbl>
       1 2018-01~ "${}^{12}~  3900    41718475     30651.     2741.               8.94
       2 2018-01~ "${}^{12}~  3900       15254        11.2       9.18            81.9 
       3 2018-01~ "${}^{12}~  3900      511093       375.      221.              58.7 
       4 2018-01~ "${}^{12}~  3900      686187       504.      341.              67.7 
       5 2018-01~ "${}^{13}~  3900      458139       337.       42.5             12.6 
       6 2018-01~ "${}^{13}~  3900        9158         6.73      5.64            83.8 
       7 2018-01~ "${}^{40}~  3900    18082538     13285.     1858.              14.0 
       8 2018-01~ "${}^{12}~  3900    72956119     53601.     4077.               7.61
       9 2018-01~ "${}^{12}~  3900       10786         7.92      7.48            94.4 
      10 2018-01~ "${}^{12}~  3900      362709       266.      114.              42.9 
      # ... with 11 more rows, and 5 more variables: $s_{\bar{X}}$ <dbl>,
      #   $\hat{s}_{N}$ <dbl>, $\hat{\epsilon}_{N}$ (\text{\textperthousand}) <dbl>,
      #   $\hat{s}_{\bar{N}}$ <dbl>, $\chi^{2}_{N}$ <dbl>
…
