# Check change over time in read_IC

    Code
      read_IC(path_point)
    Output
      # A tibble: 81,900 x 4
         file.nm                 t.nm  N.rw species.nm
         <chr>                  <dbl> <dbl> <chr>     
       1 2018-01-19-GLENDON_1_1  0.54 12040 12C       
       2 2018-01-19-GLENDON_1_1  1.08 11950 12C       
       3 2018-01-19-GLENDON_1_1  1.62 12100 12C       
       4 2018-01-19-GLENDON_1_1  2.16 11946 12C       
       5 2018-01-19-GLENDON_1_1  2.7  12178 12C       
       6 2018-01-19-GLENDON_1_1  3.24 12114 12C       
       7 2018-01-19-GLENDON_1_1  3.78 12147 12C       
       8 2018-01-19-GLENDON_1_1  4.32 12092 12C       
       9 2018-01-19-GLENDON_1_1  4.86 12024 12C       
      10 2018-01-19-GLENDON_1_1  5.4  12045 12C       
      # ... with 81,890 more rows
…
