Simulate ion count data — simu_R • point
…
...
Not supported currently

    Value

    Tibble with simulated ion count data.D

    Examples

# Gradient in 13C/12C over measurement transect
simu_R(50, "symmetric", "13C", "12C", "VPDB", 1)
#> # A tibble: 6,000 × 11
#>    type.nm  trend.nm base.nm force.nm  t.nm bl.nm  n.rw spot.nm species.nm  N.sm
#>    <chr>       <dbl>   <dbl>    <dbl> <int> <int> <dbl>   <int> <chr>      <dbl>
#>  1 symmetr…       50       0        0     1     1  3000       1 13C          234
#>  2 symmetr…       50       0        0     1     1  3000       1 12C        22279
#>  3 symmetr…       50       0        0     2     1  3000       1 13C          236
#>  4 symmetr…       50       0        0     2     1  3000       1 12C        22287
#>  5 symmetr…       50       0        0     3     1  3000       1 13C          286
#>  6 symmetr…       50       0        0     3     1  3000       1 12C        22234
#>  7 symmetr…       50       0        0     4     1  3000       1 13C          237
#>  8 symmetr…       50       0        0     4     1  3000       1 12C        22249
#>  9 symmetr…       50       0        0     5     1  3000       1 13C          240
#> 10 symmetr…       50       0        0     5     1  3000       1 12C        22026
#> # … with 5,990 more rows, and 1 more variable: Xt.sm <dbl>
…
