Analyse raw ion count data — stat_X • point
…
    Examples

# Use point_example() to access the examples bundled with this package

# raw data containing 13C and 12C counts on carbonate
tb_rw <- read_IC(point_example("2018-01-19-GLENDON"), meta = TRUE)

# Processing raw ion count data
tb_pr <- cor_IC(tb_rw)

# Single ion descriptive an predictive statistics for all measured ions
stat_X(tb_pr, file.nm)
#> # A tibble: 21 × 12
#>    file.nm         species.nm n_t.nm tot_N.pr M_Xt.pr S_Xt.pr RS_Xt.pr SeM_Xt.pr
#>    <chr>           <chr>       <int>    <dbl>   <dbl>   <dbl>    <dbl>     <dbl>
#>  1 2018-01-19-GLE… 12C          3900 41718475  3.06e4 2738.       8.94   43.8   
#>  2 2018-01-19-GLE… 12C13C       3900    15254  1.12e1    9.17    81.9     0.147 
#>  3 2018-01-19-GLE… 12C14N       3900   511093  3.75e2  220.      58.7     3.53  
#>  4 2018-01-19-GLE… 12C2         3900   686187  5.04e2  341.      67.7     5.46  
#>  5 2018-01-19-GLE… 13C          3900   458139  3.36e2   42.5     12.6     0.680 
#>  6 2018-01-19-GLE… 13C14N       3900     9158  6.72e0    5.63    83.8     0.0902
#>  7 2018-01-19-GLE… 40Ca16O      3900 18082538  1.33e4 1856.      14.0    29.7   
#>  8 2018-01-19-GLE… 12C          3900 72956119  5.35e4 4073.       7.61   65.2   
#>  9 2018-01-19-GLE… 12C13C       3900    10786  7.92e0    7.48    94.4     0.120 
#> 10 2018-01-19-GLE… 12C14N       3900   362709  2.66e2  114.      42.9     1.83  
#> # … with 11 more rows, and 4 more variables: hat_S_N.pr <dbl>,
#> #   hat_RS_N.pr <dbl>, hat_SeM_N.pr <dbl>, chi2_N.pr <dbl>
…
