IC-read • point
…
The function read_IC() takes a character string indicating the directory file name. It further enables selecting the extraction of associated metadata by setting the argument meta = TRUE (default), and this metadata can be include as an attribute with argument hide = TRUE (default) or as additional columns hide = FALSE. This has the added bonus that it provides consistency checks between metadata that generate easily interpretable warnings.

(tb_rw <- read_IC(point_example("2018-01-19-GLENDON"), meta = TRUE))
#> Registered S3 methods overwritten by 'readr':
#>   method                    from 
#>   as.data.frame.spec_tbl_df vroom
#>   as_tibble.spec_tbl_df     vroom
#>   format.col_spec           vroom
#>   print.col_spec            vroom
#>   print.collector           vroom
#>   print.date_names          vroom
#>   print.locale              vroom
#>   str.col_spec              vroom
#> # A tibble: 81,900 × 7
#>    file.nm                 t.nm  N.rw species.nm sample.nm         n.rw bl.nm
#>    <chr>                  <dbl> <dbl> <chr>      <chr>            <dbl> <int>
#>  1 2018-01-19-GLENDON_1_1  0.54 12040 12C        Belemnite,Indium  3900     1
#>  2 2018-01-19-GLENDON_1_1  1.08 11950 12C        Belemnite,Indium  3900     1
#>  3 2018-01-19-GLENDON_1_1  1.62 12100 12C        Belemnite,Indium  3900     1
#>  4 2018-01-19-GLENDON_1_1  2.16 11946 12C        Belemnite,Indium  3900     1
#>  5 2018-01-19-GLENDON_1_1  2.7  12178 12C        Belemnite,Indium  3900     1
#>  6 2018-01-19-GLENDON_1_1  3.24 12114 12C        Belemnite,Indium  3900     1
#>  7 2018-01-19-GLENDON_1_1  3.78 12147 12C        Belemnite,Indium  3900     1
#>  8 2018-01-19-GLENDON_1_1  4.32 12092 12C        Belemnite,Indium  3900     1
#>  9 2018-01-19-GLENDON_1_1  4.86 12024 12C        Belemnite,Indium  3900     1
#> 10 2018-01-19-GLENDON_1_1  5.4  12045 12C        Belemnite,Indium  3900     1
#> # … with 81,890 more rows
…
species.nm: chemical species name

sample.nm: physical sample name

n.rw: the total number of measurements \(n\)

bl.nm: count block identifier

Warnings signals are used to inform to inform that e.g. some metadata files have no associated data files with ion counts. These files are omitted with this argument combination call to read_IC().

The data is complemented with metadata of the associated analysis.

attr(tb_rw, "metadata")
#> # A tibble: 81,900 × 38
#>    file.nm       t.nm species.nm sample.nm bl.nm num.mt bfield.mt rad.mt mass.mt
#>    <chr>        <dbl> <chr>      <chr>     <int>  <dbl> <chr>     <chr>  <chr>  
#>  1 2018-01-19-…  0.54 12C        Belemnit…     1      1 1435.746  310.6… 12.000…
#>  2 2018-01-19-…  1.08 12C        Belemnit…     1      1 1435.746  310.6… 12.000…
#>  3 2018-01-19-…  1.62 12C        Belemnit…     1      1 1435.746  310.6… 12.000…
#>  4 2018-01-19-…  2.16 12C        Belemnit…     1      1 1435.746  310.6… 12.000…
#>  5 2018-01-19-…  2.7  12C        Belemnit…     1      1 1435.746  310.6… 12.000…
#>  6 2018-01-19-…  3.24 12C        Belemnit…     1      1 1435.746  310.6… 12.000…
#>  7 2018-01-19-…  3.78 12C        Belemnit…     1      1 1435.746  310.6… 12.000…
#>  8 2018-01-19-…  4.32 12C        Belemnit…     1      1 1435.746  310.6… 12.000…
#>  9 2018-01-19-…  4.86 12C        Belemnit…     1      1 1435.746  310.6… 12.000…
#> 10 2018-01-19-…  5.4  12C        Belemnit…     1      1 1435.746  310.6… 12.000…
#> # … with 81,890 more rows, and 29 more variables: tc.mt <dbl>, coord.mt <chr>,
#> #   file_raw.mt <chr>, bl_num.mt <chr>, meas_bl.mt <chr>, rejection.mt <chr>,
#> #   slit.mt <chr>, lens.mt <chr>, presput.mt <chr>, rast_com.mt <chr>,
#> #   frame.mt <chr>, blank_rast.mt <chr>, raster.mt <chr>, tune.mt <chr>,
#> #   reg_mode.mt <chr>, chk_frm.mt <chr>, sec_ion_cent.mt <chr>,
#> #   frame_sec_ion_cent.mt <chr>, width_hor.mt <chr>, width_ver.mt <chr>,
#> #   E0S_cent.mt <chr>, width_V.mt <chr>, E0P_off.mt <chr>, …
…
