Process raw ion count data — cor_IC • point
…
    Examples

# Use point_example() to access the examples bundled with this package

# raw data containing 13C and 12C counts on carbonate
tb_rw <- read_IC(point_example("2018-01-19-GLENDON"))

# Processing raw ion count data
cor_IC(tb_rw)

#> # A tibble: 81,900 × 5
#>    file.nm                 t.nm species.nm  Xt.pr  N.pr
#>    <chr>                  <dbl> <chr>       <dbl> <dbl>
#>  1 2018-01-19-GLENDON_1_1  0.54 12C        34460. 12040
#>  2 2018-01-19-GLENDON_1_1  1.08 12C        34202. 11950
#>  3 2018-01-19-GLENDON_1_1  1.62 12C        34632. 12100
#>  4 2018-01-19-GLENDON_1_1  2.16 12C        34191. 11946
#>  5 2018-01-19-GLENDON_1_1  2.7  12C        34855. 12178
#>  6 2018-01-19-GLENDON_1_1  3.24 12C        34672. 12114
#>  7 2018-01-19-GLENDON_1_1  3.78 12C        34766. 12147
#>  8 2018-01-19-GLENDON_1_1  4.32 12C        34609. 12092
#>  9 2018-01-19-GLENDON_1_1  4.86 12C        34414. 12024
#> 10 2018-01-19-GLENDON_1_1  5.4  12C        34474. 12045
#> # … with 81,890 more rows
…
